{"results":[{"uuid":"dae3ad01dfdad0c0cc629945b189f827","sourceCode":"Employer Portal","title":"Senior Data Analyst","description":"<p>Are you a Senior Data Analyst with a proven track record of <strong>delivering clear business impact through data</strong>?<strong> </strong>We’ve been looking for you!</p><p>The data team at Kape is building a world-class, data-driven culture to empower our employees with timely, accurate information to drive their decision making.  </p><p>In this role you will make a huge impact, influencing business decisions relating to millions of customers every day. You’ll work with great people on projects across the company, and play a pivotal role in supporting strategic business initiatives through data analysis, experimentation and development of metrics and dashboards.</p><p><br /><u><strong>What you’ll be doing</strong></u></p><p>As a Senior Data Analyst, you will:</p><ul><li><p>Act as a strategic partner working in cross functional teams to grow the extent of data-driven planning and decision making in specific areas, specialising in <strong>Retention & CRM</strong> analytics.</p></li><li><p>Design and evaluate <strong>experiments</strong> for retention and CRM-related initiatives, such as reducing churn and cancellations, increasing upgrades and upsells, etc.  </p></li><li><p>Partner with web and backend developers to work on the analytics tracking requirements and accuracy of the tracking implementation. </p></li><li><p>Turn data into insights, predictions, and actionable recommendations, delivering clear business value to your cross functional teams in their business challenges. </p></li><li><p>Deliver impactful insights and recommendations using compelling visualizations in user-friendly dashboard designs. </p></li><li><p>Work in partnership with Data Engineers and Analytics Engineers to define data requirements, foundational datasets and ensure high-fidelity tracking.</p></li><li><p>Contribute to the planning & execution of the <strong>Retention and CRM</strong> team within the organisation - as a group of people, as a <strong>partner</strong> within cross functional teams and as an <strong>enabler</strong> to support others to self-serve their data and insight needs.  </p></li></ul><p><u><strong>Who we’re looking for</strong></u></p><p><u><strong>Experience & expertise</strong></u></p><ul><li><p>5+ years in a product analytics, growth or marketing analytics role</p></li><li><p>Hands-on experience with retention and CRM efforts — knowledge of user segmentations and targeting, organic communication channels, such as Braze.<br /></p></li></ul><p><u><strong>Data mindset & ownership</strong></u></p><ul><li><p>Passionate about data and using it to influence business decisions</p></li><li><p>Detail-oriented in ensuring data quality and integrity across everything you present</p></li><li><p>Self-starter with a strong sense of ownership — you bring insights to life, not just report them</p></li><li><p>Comfortable navigating ambiguity and able to lead complex, loosely-defined projects from first principles through to a clear outcome</p></li></ul><p><u><strong>Business partnership</strong></u></p><ul><li><p>Adept at integrating with business teams to truly understand their challenges and define how data can help — as early as possible</p></li><li><p>Strong business acumen with a business-first approach to problem framing</p></li><li><p>Track record of delivering clear, actionable business value from data — fit for purpose, not just technically impressive</p></li></ul><p><u><strong>Communication & storytelling</strong></u></p><ul><li><p>Excellent communicator who uses storytelling to make insights land at the business level</p></li><li><p>Able to connect data narratives to commercial outcomes in a way that resonates across teams</p></li><li><p>Fluent in English</p></li><li><p>Thrives working alongside intelligent, passionate people</p></li></ul><p><u><strong>Technical skills</strong></u></p><ul><li><p>High proficiency in SQL and/or other querying languages</p></li><li><p>Hands-on experience in Tableau or equivalent data visualisation tools</p></li><li><p>Comfortable working with AI tools and incorporating them into your workflow to move faster and think sharper</p></li></ul><p><u><strong>Nice to have, but not required </strong></u><br /></p><ul><li><p>You came from a <strong>subscription-based e-commerce</strong> company. </p></li><li><p>A desire to <strong>elevate the team</strong> by <strong>mentoring</strong> junior analysts and fostering a culture of peer review and best practices.</p></li><li><p><strong>Machine learning</strong> data modelling experience.</p></li></ul>","minimumYearsExperience":5,"shiftPattern":null,"schemes":[],"skills":[{"skill":"Retention Management","uuid":"0e6ea13124a17c7e35da7dd043f5c098","confidence":null,"isKeySkill":false},{"skill":"communication channels","uuid":"0e915d78ad15dc28e8894f3cfdf4eafb","confidence":null,"isKeySkill":false},{"skill":"Analyse Product Performance","uuid":"1966273b46d449da1fd23a88e091aacc","confidence":null,"isKeySkill":false},{"skill":"Data Marketing","uuid":"414344f8fe277fa1582e317131942988","confidence":null,"isKeySkill":false},{"skill":"targeted communication","uuid":"4463fc83203adf805b26e35c2f882687","confidence":null,"isKeySkill":false},{"skill":"Experimentation","uuid":"45071f255ad41e414e8f5404497caf0c","confidence":null,"isKeySkill":false},{"skill":"Professional Experience","uuid":"632968bdb5f7407298c5dd0b74fd371d","confidence":null,"isKeySkill":false},{"skill":"tracking application","uuid":"74263ce26aab600dc2c053f500e34035","confidence":null,"isKeySkill":false},{"skill":"Growth Management","uuid":"772bfc902a9c2127e06a908b885881af","confidence":null,"isKeySkill":false},{"skill":"Data Governance","uuid":"7c8d5f6eb1e6bf93b12b639d08b57ce9","confidence":null,"isKeySkill":false},{"skill":"Data Integrity","uuid":"9b93857d6f6087660807bbe58f2c4fc4","confidence":null,"isKeySkill":false},{"skill":"Evaluate Designs","uuid":"9c1f26fa27cef15ccab7ffe7fe80dce5","confidence":null,"isKeySkill":false},{"skill":"Data-Driven Decision Making","uuid":"b533dbad15df2fc96667acfdf5a1c29e","confidence":null,"isKeySkill":false},{"skill":"Google Analytics","uuid":"d86cf69a8b82547a94ca3f6a307cf9a6","confidence":null,"isKeySkill":false},{"skill":"Self-starter","uuid":"e95b295dea0204629d967a3e78559a3b","confidence":null,"isKeySkill":false},{"skill":"Project Integration","uuid":"fe4dfee11fa54481d2e1216f7c12e637","confidence":null,"isKeySkill":false}],"flexibleWorkArrangements":[],"otherRequirements":null,"ssocCode":"21222","occupationId":"OCC013821","ssocVersion":"2020v3","workingHours":null,"numberOfVacancies":1,"psdUrl":null,"categories":[{"id":21,"category":"Information Technology"}],"employmentTypes":[{"id":7,"employmentType":"Permanent"}],"positionLevels":[{"id":7,"position":"Professional"}],"status":{"id":102,"jobStatus":"Open"},"ssecEqa":"70","ssecFos":"0911","postedCompany":{"uen":"202129608K","description":null,"name":"NETWORK GUARD PTE. LTD.","ssicCode":"62013","employeeCount":null,"companyUrl":null,"lastSyncDate":"2026-07-14T05:57:07.000Z","ssicCode2020":"62013","_links":{"self":{"href":"https://api.mycareersfuture.gov.sg/v2/companies/202129608K"},"jobs":{"href":"https://api.mycareersfuture.gov.sg/v2/companies/202129608K/jobs"},"addresses":{"href":"https://api.mycareersfuture.gov.sg/v2/companies/202129608K/addresses"},"schemes":{"href":"https://api.mycareersfuture.gov.sg/v2/companies/202129608K/schemes"}},"logoFileName":null,"logoUploadPath":null,"responsiveEmployer":{"isResponsive":false}},"hiringCompany":null,"address":{"overseasCountry":null,"foreignAddress1":null,"foreignAddress2":null,"block":"600","street":"NORTH BRIDGE ROAD","floor":null,"unit":null,"building":"PARKVIEW SQUARE","postalCode":"188778","isOverseas":false,"districts":[{"id":7,"location":"D07 Middle Road, Golden Mile","region":"Central","sectors":["18","19"],"regionId":"Central"}],"lat":1.30019332358352,"lng":103.857616878453},"metadata":{"jobPostId":"MCF-2026-1205826","deletedAt":null,"createdBy":"c64ab528-5630-479d-81eb-bcf69853696d","createdAt":"2026-07-14T06:01:29.000Z","updatedAt":"2026-07-14T06:01:29.000Z","emailRecipient":"c64ab528-5630-479d-81eb-bcf69853696d","editCount":0,"repostCount":0,"totalNumberOfView":146,"newPostingDate":"2026-07-14","originalPostingDate":"2026-07-14","expiryDate":"2026-07-28","totalNumberJobApplication":19,"isJdEnhanced":false,"isPostedOnBehalf":false,"isHideSalary":false,"isHideCompanyAddress":false,"isHideHiringEmployerName":false,"isHideEmployerName":false,"jobDetailsUrl":"https://www.mycareersfuture.gov.sg/job/information-technology/senior-data-analyst-network-guard-dae3ad01dfdad0c0cc629945b189f827","matchedSkillsScore":null},"salary":{"maximum":14000,"minimum":9000,"type":{"id":4,"salaryType":"Monthly"}},"_links":{"self":{"href":"https://api.mycareersfuture.gov.sg/v2/jobs/dae3ad01dfdad0c0cc629945b189f827"},"screeningQuestions":{"href":"https://api.mycareersfuture.gov.sg/v2/jobs/dae3ad01dfdad0c0cc629945b189f827/screening-questions"}},"jobTitles":[]},{"uuid":"99f386be64e49266e489d1fccf180092","sourceCode":"Employer Portal","title":"Data Analyst (1 year contract, Life science, Pharmaceutical)","description":"<p><strong>Industry: Pharmaceutical / Life Sciences</strong></p><p><strong>Role Overview:</strong></p><p> The Data Analyst will play a key role in driving the modernization of BIO Lab Management and Analytics through digital transformation. This role focuses on technical data analysis, sample and inventory management, lab analytics, and knowledge management. The analyst will collaborate with cross-functional stakeholders to identify opportunities for improvement, develop sustainable digital solutions, and provide data-driven insights that enhance performance and decision-making.</p><p><strong>Key Responsibilities</strong></p><p>· Develop and implement digital solutions aligned with stakeholder requirements using appropriate platforms and tools.</p><p>• Conduct User Acceptance Testing (UAT) to ensure solutions are efficient, reliable, and user-friendly, incorporating user feedback to improve system functionality and performance.</p><p>• Collaborate with IT, Business Excellence, and other internal teams to design and enhance systems for data collection, storage, and analysis.</p><p>• Create clear documentation and troubleshooting guides to ensure long-term sustainability of implemented digital tools.</p><p>• Perform ad-hoc and exploratory data analyses to address complex business challenges and support ongoing strategic initiatives.</p><p>• Identify and interpret key trends from laboratory and process data to support data-driven decision-making.</p><p>• Ensure compliance with data governance standards, maintaining consistency in data definitions, sources, and quality.</p><p>• Design and optimize data extraction processes to consolidate and standardize information from multiple systems.</p><p>• Communicate regularly with management and stakeholders to gather requirements, provide progress updates, and present analytical findings.</p><p>• Deliver user training and knowledge transfer sessions to ensure smooth adoption and effective use of digital systems.</p><p><strong>Requirements:</strong></p><p>• Bachelor’s degree in engineering, Computer Science, Statistics, or any relevant discipline.</p><p>• Certification in business data analysis or a related area is an advantage.</p><p>• 3–6 years of experience in data analytics, digital transformation, or business analysis within the pharmaceutical or life sciences sector.</p><p>• Proficiency in data and digital tools including Microsoft Power Platform (Power BI, PowerApps, Power Automate), Smartsheet, SQL, and Python.</p><p>• Proven experience in developing dashboards, reports, and analytics solutions that enhance operational efficiency.</p><p>• Strong analytical thinking, data interpretation, and problem-solving abilities.</p><p>• Knowledge or experience in BIO manufacturing processes, IT/OT systems, and GxP-compliant environments is preferred.</p><p>• Familiarity with data governance principles and basic machine learning applications is beneficial.<br /></p><p>If the above role is a good fit for you, or if you know anyone whomight be good for the role, please get in touch with an updated CV and I'll bein touch!</p><p>EA Reg Number: R1660446</p><p>EA License Number: 07C3924 </p><p>Company Registration No: 200609504D</p>","minimumYearsExperience":3,"shiftPattern":null,"schemes":[],"skills":[{"skill":"MES","uuid":"002543019e5829c50ebe806b75cd746d","confidence":null,"isKeySkill":false},{"skill":"Maintenance documentation","uuid":"0552d8ca3004081e32c9e798ddde4c2d","confidence":null,"isKeySkill":false},{"skill":"Business Data Analysis","uuid":"10e120a38bd3eae27b2e46ddc3e48972","confidence":null,"isKeySkill":false},{"skill":"UAT","uuid":"19dd6c1cec504ac854645f352eb03209","confidence":null,"isKeySkill":false},{"skill":"Pharmaceutical Manufacturing","uuid":"30da102e7dc9f3278d6d81bd1460551f","confidence":null,"isKeySkill":false},{"skill":"CSV files","uuid":"39f01623c7dd6fe882514a5de0136872","confidence":null,"isKeySkill":false},{"skill":"Laboratory Data Analysis","uuid":"46887233c633b6fd01ac9298e42f778c","confidence":null,"isKeySkill":false},{"skill":"Computer Studies","uuid":"609b01dc6494be1b14dd538c416657b6","confidence":null,"isKeySkill":false},{"skill":"Automation Tools","uuid":"6610f9d34d0252187120a02b66c88b5b","confidence":null,"isKeySkill":false},{"skill":"Biotechnology Industry","uuid":"773fda6862943e870c34875c101dd03b","confidence":null,"isKeySkill":false},{"skill":"Data Governance","uuid":"7c8d5f6eb1e6bf93b12b639d08b57ce9","confidence":null,"isKeySkill":false},{"skill":"Computer Science","uuid":"8329f5105520a1b72d062628c077ddfa","confidence":null,"isKeySkill":false},{"skill":"Biotechnology","uuid":"8a07f2e22f8569cb73eebad5a52471d8","confidence":null,"isKeySkill":false},{"skill":"SQL","uuid":"9778840a0100cb30c982876741b0b5a2","confidence":null,"isKeySkill":false},{"skill":"data consistency","uuid":"9c4cf325b83d8c0f6f2f0e73ad839457","confidence":null,"isKeySkill":false},{"skill":"Python","uuid":"a7f5f35426b927411fc9231b56382173","confidence":null,"isKeySkill":false},{"skill":"Pharmaceutical Research","uuid":"ba2d5b04f8c8e7a8df6ecf78f5db89f7","confidence":null,"isKeySkill":false},{"skill":"Life Science Industry","uuid":"c88695ca8fe7a935087b2d6765501454","confidence":null,"isKeySkill":false},{"skill":"Data Extraction","uuid":"dbd3868f3f4ddbf5100bffd14d3b900f","confidence":null,"isKeySkill":false},{"skill":"Biopharmaceuticals","uuid":"ec5a11c60e12ea1e79f6dd6ce3c5f084","confidence":null,"isKeySkill":false}],"flexibleWorkArrangements":[],"otherRequirements":null,"ssocCode":"21222","occupationId":"OCC013821","ssocVersion":"2020v3","workingHours":null,"numberOfVacancies":1,"psdUrl":null,"categories":[{"id":21,"category":"Information Technology"}],"employmentTypes":[{"id":2,"employmentType":"Temporary"},{"id":3,"employmentType":"Contract"},{"id":7,"employmentType":"Permanent"}],"positionLevels":[{"id":9,"position":"Executive"}],"status":{"id":102,"jobStatus":"Open"},"ssecEqa":"70","ssecFos":"1140","postedCompany":{"uen":"200609504D","description":"<p> </p>\r\n\r\n<p>We are the experts in recruiting qualified, professional and skilled people across a wide range of specialised industries and professions. We operate across the private and public sectors, dealing in permanent positions, contract roles and temporary assignments.</p>\r\n\r\n<p>At Hays, we believe the right job can transform a person's life and the right person can transform a business. We're passionate about connecting our candidates with the right job for them.</p>\r\n\r\n<p> </p>\r\n","name":"HAYS SPECIALIST RECRUITMENT PTE. LTD.","ssicCode":"78104","employeeCount":null,"companyUrl":"www.hays.com.sg","lastSyncDate":"2026-07-17T02:09:49.000Z","ssicCode2020":"78104","_links":{"self":{"href":"https://api.mycareersfuture.gov.sg/v2/companies/200609504D"},"jobs":{"href":"https://api.mycareersfuture.gov.sg/v2/companies/200609504D/jobs"},"addresses":{"href":"https://api.mycareersfuture.gov.sg/v2/companies/200609504D/addresses"},"schemes":{"href":"https://api.mycareersfuture.gov.sg/v2/companies/200609504D/schemes"}},"logoFileName":"4ae965e9fb834c004c3ba37e46803685/hays-specialist-recruitment.png","logoUploadPath":"https://static.mycareersfuture.gov.sg/images/company/logos/4ae965e9fb834c004c3ba37e46803685/hays-specialist-recruitment.png","responsiveEmployer":{"isResponsive":true}},"hiringCompany":null,"address":{"overseasCountry":null,"foreignAddress1":null,"foreignAddress2":null,"block":"63","street":"CHULIA STREET","floor":null,"unit":null,"building":"OCBC CENTRE EAST","postalCode":"049514","isOverseas":false,"districts":[{"id":1,"location":"D01 Marina, Raffles Place, People's Park, Cecil","region":"Central","sectors":["01","02","03","04","05","06"],"regionId":"Central"}],"lat":1.28489039050499,"lng":103.849665569899},"metadata":{"jobPostId":"MCF-2026-1150661","deletedAt":null,"createdBy":"25dbcb09-e407-4870-889f-c7cf472085e4","createdAt":"2026-07-06T07:31:36.000Z","updatedAt":"2026-07-06T07:31:33.000Z","emailRecipient":"25dbcb09-e407-4870-889f-c7cf472085e4","editCount":0,"repostCount":0,"totalNumberOfView":251,"newPostingDate":"2026-07-06","originalPostingDate":"2026-07-06","expiryDate":"2026-08-05","totalNumberJobApplication":30,"isJdEnhanced":false,"isPostedOnBehalf":false,"isHideSalary":false,"isHideCompanyAddress":false,"isHideHiringEmployerName":false,"isHideEmployerName":false,"jobDetailsUrl":"https://www.mycareersfuture.gov.sg/job/information-technology/data-analyst-hays-specialist-recruitment-99f386be64e49266e489d1fccf180092","matchedSkillsScore":null},"salary":{"maximum":5500,"minimum":4400,"type":{"id":4,"salaryType":"Monthly"}},"_links":{"self":{"href":"https://api.mycareersfuture.gov.sg/v2/jobs/99f386be64e49266e489d1fccf180092"},"screeningQuestions":{"href":"https://api.mycareersfuture.gov.sg/v2/jobs/99f386be64e49266e489d1fccf180092/screening-questions"}},"jobTitles":[]},{"uuid":"42d5fef7f3d9d01c24399dc56e1721f3","sourceCode":"Employer Portal","title":"Data Analyst Intern","description":"<p><strong>About Us</strong></p>\n<p>Founded in 2014, Lumens Group is leading the transformation of the mobility industry in Singapore. We have successfully built one of Singapore's largest car fleets and expanded our offerings to personal and corporate leasing, purchasing and financing. As we enter a new phase, we're building an integrated ecosystem for merchants and consumers, driven by advanced technology and a mission to enrich everyday life. Now, we're on the lookout for a data analyst intern to join us in Singapore.</p>\n<p><br></p>\n<p><strong>Your Role on Our Journey</strong></p>\n<p>We are looking for a Data Analyst Intern to support our business teams in making data driven decisions. The intern will work closely with different stakeholders to understand processes and reporting needs and then translate them into automated solutions and dashboards. This role is ideal for someone who is detail-oriented, curious, and eager to learn about data analysis and business operations.</p>\n<p><br></p>\n<p><strong>Your Day-to-Day Adventures</strong></p>\n<ul>\n  <li>Collaborate with different teams to understand workflows, requirements, and reporting needs.</li>\n  <li>Automate report generation to improve efficiency and reduce manual work.</li>\n  <li>Build, update, and schedule Power BI dashboards for business monitoring.</li>\n  <li>Clean, transform, and prepare data from multiple sources for analysis and automation.</li>\n  <li>Assist in setting up data pipelines to ensure data accuracy, timeliness, and usability.</li>\n  <li>Conduct ad-hoc analyses to provide insights that support business decisions.</li>\n</ul>\n<p>What Makes You a Perfect Fit</p>\n<ul>\n  <li>Proficient in Power BI (dashboard creation, scheduling, data modeling).</li>\n  <li>Familiarity with data integration and data pipelining (extracting, cleaning, and preparing data from multiple sources).</li>\n  <li>Basic scripting/programming knowledge (e.g., Python for report automation, data cleaning, or ETL tasks).</li>\n  <li>Strong analytical and problem-solving skills with attention to detail.</li>\n  <li>Good communication skills to translate business needs into technical requirements.</li>\n</ul>\n<p><strong>Good to Have (Bonus) Skills</strong></p>\n<ul>\n  <li>Knowledge of SQL for querying and joining datasets.</li>\n  <li>Experience with Excel/Google Sheets for quick analyses.</li>\n  <li>Exposure to ETL tools or cloud data platforms.</li>\n  <li>Basic understanding of data governance, quality checks, and version control.</li>\n</ul>\n<p><strong>Ready to Drive the Extra Mile?</strong></p>\n<p>Send your resume that showcases your unique spark to us today. If your journey aligns with ours, we'll get in touch soon!</p>","minimumYearsExperience":1,"shiftPattern":null,"schemes":[],"skills":[{"skill":"Dashboards","uuid":"0ba8adc53c16a6ffe145978e834b02f8","confidence":null,"isKeySkill":false},{"skill":"Business Data Analysis","uuid":"10e120a38bd3eae27b2e46ddc3e48972","confidence":null,"isKeySkill":false},{"skill":"Ad-Hoc Analysis","uuid":"2689172e5daa427430f3ad333fb5f297","confidence":null,"isKeySkill":false},{"skill":"Data Analysis","uuid":"323d6a1348df47d3174f578e1eff00eb","confidence":null,"isKeySkill":false},{"skill":"Data Pipeline","uuid":"44015b690563d24a1b4f17c3e319c61e","confidence":null,"isKeySkill":false},{"skill":"analysis tools","uuid":"5723d15d8f119d31bef40af8380846b3","confidence":null,"isKeySkill":false},{"skill":"Automation of reports","uuid":"632d5a9bc46d3fb5ea748ccc27e4cb22","confidence":null,"isKeySkill":false},{"skill":"ETL","uuid":"6d60d8638479618e2114d37a7be726ca","confidence":null,"isKeySkill":false},{"skill":"Data Integration","uuid":"6d8ab8489413756b1af6bdab6b80863e","confidence":null,"isKeySkill":false},{"skill":"Transformation","uuid":"7793401b28a8b98f7f4ccce3a07c17df","confidence":null,"isKeySkill":false},{"skill":"Data Governance","uuid":"7c8d5f6eb1e6bf93b12b639d08b57ce9","confidence":null,"isKeySkill":false},{"skill":"Workflow Development","uuid":"7df1136f740f66ca9df279f3566b9425","confidence":null,"isKeySkill":false},{"skill":"SQL","uuid":"9778840a0100cb30c982876741b0b5a2","confidence":null,"isKeySkill":false},{"skill":"Python","uuid":"a7f5f35426b927411fc9231b56382173","confidence":null,"isKeySkill":false},{"skill":"Power BI","uuid":"e5c930f4134c3d946962924c7f02aab7","confidence":null,"isKeySkill":false}],"flexibleWorkArrangements":[],"otherRequirements":null,"ssocCode":"25211","occupationId":"OCC002230","ssocVersion":"2020v3","workingHours":null,"numberOfVacancies":1,"psdUrl":null,"categories":[{"id":9,"category":"Design"},{"id":21,"category":"Information Technology"},{"id":41,"category":"Others"}],"employmentTypes":[{"id":10,"employmentType":"Internship/Attachment"}],"positionLevels":[{"id":12,"position":"Fresh/entry level"}],"status":{"id":102,"jobStatus":"Open"},"ssecEqa":"51","ssecFos":"0752","postedCompany":{"uen":"201426961K","description":"<p>Based in Singapore, Lumens Group is a family of brands offering an ecosystem of services around cars. Our story began as a private hire car leasing company to address the needs of the new sharing economy led by Uber and Grab. Our core business has been leasing to ride hailing drivers and we grew our car fleet to one of the largest in Singapore in under 8 years. During this time, we have expanded our services to personal &amp; corporate vehicle leasing, vehicle purchasing and financing.</p>\n<p><br></p>\n<p>Emerging strong from the Covid-19 period, Lumens is building for an exciting new era that brings in a wide range of merchants and individual consumers to our ecosystem. By owning a critical mass of vehicles and driver relationships, we are able to innovate on vehicle setup, driver upskilling &amp; deployment, as well as technology and data capabilities to build mobility platform services that impact our everyday lives.</p>","name":"LUMENS PTE. LTD.","ssicCode":"49214","employeeCount":130,"companyUrl":"https://lumens.sg/","lastSyncDate":"2026-07-16T01:33:36.000Z","ssicCode2020":"49214","_links":{"self":{"href":"https://api.mycareersfuture.gov.sg/v2/companies/201426961K"},"jobs":{"href":"https://api.mycareersfuture.gov.sg/v2/companies/201426961K/jobs"},"addresses":{"href":"https://api.mycareersfuture.gov.sg/v2/companies/201426961K/addresses"},"schemes":{"href":"https://api.mycareersfuture.gov.sg/v2/companies/201426961K/schemes"}},"logoFileName":"bd717fb28b146e78dca9c0f950bc52f4/lumens-auto.jpg","logoUploadPath":"https://static.mycareersfuture.gov.sg/images/company/logos/bd717fb28b146e78dca9c0f950bc52f4/lumens-auto.jpg","responsiveEmployer":{"isResponsive":true}},"hiringCompany":null,"address":{"overseasCountry":null,"foreignAddress1":null,"foreignAddress2":null,"block":"22","street":"SIN MING LANE","floor":null,"unit":null,"building":"MIDVIEW CITY","postalCode":"573969","isOverseas":false,"districts":[{"id":20,"location":"D20 Ang Mo Kio, Bishan","region":"Central","sectors":["56","57"],"regionId":"Central"}],"lat":1.35855747323378,"lng":103.833558233574},"metadata":{"jobPostId":"MCF-2026-1167793","deletedAt":null,"createdBy":"360771ba-8216-4ee4-b45c-f3e129950d27","createdAt":"2026-07-08T06:56:23.000Z","updatedAt":"2026-07-08T06:56:23.000Z","emailRecipient":"360771ba-8216-4ee4-b45c-f3e129950d27","editCount":0,"repostCount":0,"totalNumberOfView":242,"newPostingDate":"2026-07-08","originalPostingDate":"2026-07-08","expiryDate":"2026-08-07","totalNumberJobApplication":28,"isJdEnhanced":false,"isPostedOnBehalf":false,"isHideSalary":false,"isHideCompanyAddress":false,"isHideHiringEmployerName":false,"isHideEmployerName":false,"jobDetailsUrl":"https://www.mycareersfuture.gov.sg/job/design/data-analyst-intern-lumens-42d5fef7f3d9d01c24399dc56e1721f3","matchedSkillsScore":null},"salary":{"maximum":1200,"minimum":800,"type":{"id":4,"salaryType":"Monthly"}},"_links":{"self":{"href":"https://api.mycareersfuture.gov.sg/v2/jobs/42d5fef7f3d9d01c24399dc56e1721f3"},"screeningQuestions":{"href":"https://api.mycareersfuture.gov.sg/v2/jobs/42d5fef7f3d9d01c24399dc56e1721f3/screening-questions"}},"jobTitles":[]}],"total":134,"_links":{"next":{"href":"https://api.mycareersfuture.gov.sg/v2/jobs?limit=3&page=2&search=data%20analyst&salary=0"},"prev":{"href":"https://api.mycareersfuture.gov.sg/v2/jobs?limit=3&search=data%20analyst&salary=0"},"self":{"href":"https://api.mycareersfuture.gov.sg/v2/jobs?limit=3&page=1&search=data%20analyst&salary=0"},"first":{"href":"https://api.mycareersfuture.gov.sg/v2/jobs?limit=3&search=data%20analyst&salary=0"},"last":{"href":"https://api.mycareersfuture.gov.sg/v2/jobs?limit=3&page=44&search=data%20analyst&salary=0"}},"countWithoutFilters":134}